{"count":20,"next":"https://pokeapi.co/api/v2/type/?offset=5&limit=5","previous":null,"results":[{"name":"normal","url":"https://pokeapi.co/api/v2/type/1/"},{"name":"fighting","url":"https://pokeapi.co/api/v2/type/2/"},{"name":"flying","url":"https://pokeapi.co/api/v2/type/3/"},{"name":"poison","url":"https://pokeapi.co/api/v2/type/4/"},{"name":"ground","url":"https://pokeapi.co/api/v2/type/5/"}]}